\relax 
\providecommand\hyper@newdestlabel[2]{}
\providecommand\HyperFirstAtBeginDocument{\AtBeginDocument}
\HyperFirstAtBeginDocument{\ifx\hyper@anchor\@undefined
\global\let\oldcontentsline\contentsline
\gdef\contentsline#1#2#3#4{\oldcontentsline{#1}{#2}{#3}}
\global\let\oldnewlabel\newlabel
\gdef\newlabel#1#2{\newlabelxx{#1}#2}
\gdef\newlabelxx#1#2#3#4#5#6{\oldnewlabel{#1}{{#2}{#3}}}
\AtEndDocument{\ifx\hyper@anchor\@undefined
\let\contentsline\oldcontentsline
\let\newlabel\oldnewlabel
\fi}
\fi}
\global\let\hyper@last\relax 
\gdef\HyperFirstAtBeginDocument#1{#1}
\providecommand\HyField@AuxAddToFields[1]{}
\providecommand\HyField@AuxAddToCoFields[2]{}
\catcode`"\active
\@writefile{toc}{\beamer@endinputifotherversion {3.33pt}}
\@writefile{nav}{\beamer@endinputifotherversion {3.33pt}}
\select@language{ngerman}
\@writefile{toc}{\select@language{ngerman}}
\@writefile{lof}{\select@language{ngerman}}
\@writefile{lot}{\select@language{ngerman}}
\@writefile{nav}{\headcommand {\slideentry {0}{0}{1}{1/1}{}{0}}}
\@writefile{nav}{\headcommand {\beamer@framepages {1}{1}}}
\@writefile{toc}{\beamer@sectionintoc {1}{Motivation}{2}{0}{1}}
\@writefile{nav}{\headcommand {\sectionentry {1}{Motivation}{2}{Motivation}{0}}}
\@writefile{nav}{\headcommand {\beamer@sectionpages {1}{1}}}
\@writefile{nav}{\headcommand {\beamer@subsectionpages {1}{1}}}
\@writefile{nav}{\headcommand {\slideentry {1}{0}{2}{2/2}{}{0}}}
\@writefile{nav}{\headcommand {\beamer@framepages {2}{2}}}
\@writefile{nav}{\headcommand {\slideentry {1}{0}{3}{3/3}{}{0}}}
\@writefile{nav}{\headcommand {\beamer@framepages {3}{3}}}
\@writefile{toc}{\beamer@sectionintoc {2}{AdaBoost Zweiklassenfall}{4}{0}{2}}
\@writefile{nav}{\headcommand {\sectionentry {2}{AdaBoost Zweiklassenfall}{4}{AdaBoost Zweiklassenfall}{0}}}
\@writefile{nav}{\headcommand {\beamer@sectionpages {2}{3}}}
\@writefile{nav}{\headcommand {\beamer@subsectionpages {2}{3}}}
\@writefile{nav}{\headcommand {\slideentry {2}{0}{4}{4/4}{}{0}}}
\@writefile{nav}{\headcommand {\beamer@framepages {4}{4}}}
\@writefile{nav}{\headcommand {\slideentry {2}{0}{5}{5/5}{}{0}}}
\@writefile{nav}{\headcommand {\beamer@framepages {5}{5}}}
\@writefile{nav}{\headcommand {\slideentry {2}{0}{6}{6/6}{}{0}}}
\@writefile{nav}{\headcommand {\beamer@framepages {6}{6}}}
\@writefile{nav}{\headcommand {\slideentry {2}{0}{7}{7/7}{}{0}}}
\@writefile{nav}{\headcommand {\beamer@framepages {7}{7}}}
\@writefile{nav}{\headcommand {\slideentry {2}{0}{8}{8/8}{}{0}}}
\@writefile{nav}{\headcommand {\beamer@framepages {8}{8}}}
\@writefile{nav}{\headcommand {\slideentry {2}{0}{9}{9/9}{}{0}}}
\@writefile{nav}{\headcommand {\beamer@framepages {9}{9}}}
\@writefile{toc}{\beamer@sectionintoc {3}{Forward Stagewise Modeling}{10}{0}{3}}
\@writefile{nav}{\headcommand {\sectionentry {3}{Forward Stagewise Modeling}{10}{Forward Stagewise Modeling}{0}}}
\@writefile{nav}{\headcommand {\beamer@sectionpages {4}{9}}}
\@writefile{nav}{\headcommand {\beamer@subsectionpages {4}{9}}}
\@writefile{nav}{\headcommand {\slideentry {3}{0}{10}{10/10}{}{0}}}
\@writefile{nav}{\headcommand {\beamer@framepages {10}{10}}}
\@writefile{toc}{\beamer@sectionintoc {4}{AdaBoost}{11}{0}{4}}
\@writefile{nav}{\headcommand {\sectionentry {4}{AdaBoost}{11}{AdaBoost}{0}}}
\@writefile{nav}{\headcommand {\beamer@sectionpages {10}{10}}}
\@writefile{nav}{\headcommand {\beamer@subsectionpages {10}{10}}}
\@writefile{nav}{\headcommand {\slideentry {4}{0}{11}{11/11}{}{0}}}
\@writefile{nav}{\headcommand {\beamer@framepages {11}{11}}}
\@writefile{toc}{\beamer@sectionintoc {5}{Best of the shelf classifier}{12}{0}{5}}
\@writefile{nav}{\headcommand {\sectionentry {5}{Best of the shelf classifier}{12}{Best of the shelf classifier}{0}}}
\@writefile{nav}{\headcommand {\beamer@sectionpages {11}{11}}}
\@writefile{nav}{\headcommand {\beamer@subsectionpages {11}{11}}}
\@writefile{nav}{\headcommand {\slideentry {5}{0}{12}{12/12}{}{0}}}
\@writefile{nav}{\headcommand {\beamer@framepages {12}{12}}}
\@writefile{nav}{\headcommand {\slideentry {5}{0}{13}{13/13}{}{0}}}
\@writefile{nav}{\headcommand {\beamer@framepages {13}{13}}}
\@writefile{toc}{\beamer@sectionintoc {6}{Boosting Klassifikationsverfahren in mlr}{14}{0}{6}}
\@writefile{nav}{\headcommand {\sectionentry {6}{Boosting Klassifikationsverfahren in mlr}{14}{Boosting Klassifikationsverfahren in mlr}{0}}}
\@writefile{nav}{\headcommand {\beamer@sectionpages {12}{13}}}
\@writefile{nav}{\headcommand {\beamer@subsectionpages {12}{13}}}
\@writefile{nav}{\headcommand {\slideentry {6}{0}{14}{14/14}{}{0}}}
\@writefile{nav}{\headcommand {\beamer@framepages {14}{14}}}
\@writefile{toc}{\beamer@sectionintoc {7}{Boosting Vorteile}{15}{0}{7}}
\@writefile{nav}{\headcommand {\sectionentry {7}{Boosting Vorteile}{15}{Boosting Vorteile}{0}}}
\@writefile{nav}{\headcommand {\beamer@sectionpages {14}{14}}}
\@writefile{nav}{\headcommand {\beamer@subsectionpages {14}{14}}}
\@writefile{nav}{\headcommand {\slideentry {7}{0}{15}{15/15}{}{0}}}
\@writefile{nav}{\headcommand {\beamer@framepages {15}{15}}}
\@writefile{toc}{\beamer@sectionintoc {8}{Boosting Nachteile}{16}{0}{8}}
\@writefile{nav}{\headcommand {\sectionentry {8}{Boosting Nachteile}{16}{Boosting Nachteile}{0}}}
\@writefile{nav}{\headcommand {\beamer@sectionpages {15}{15}}}
\@writefile{nav}{\headcommand {\beamer@subsectionpages {15}{15}}}
\@writefile{nav}{\headcommand {\slideentry {8}{0}{16}{16/16}{}{0}}}
\@writefile{nav}{\headcommand {\beamer@framepages {16}{16}}}
\@writefile{toc}{\beamer@sectionintoc {9}{Quellen}{17}{0}{9}}
\@writefile{nav}{\headcommand {\sectionentry {9}{Quellen}{17}{Quellen}{0}}}
\@writefile{nav}{\headcommand {\beamer@sectionpages {16}{16}}}
\@writefile{nav}{\headcommand {\beamer@subsectionpages {16}{16}}}
\@writefile{nav}{\headcommand {\slideentry {9}{0}{17}{17/17}{}{0}}}
\@writefile{nav}{\headcommand {\beamer@framepages {17}{17}}}
\@writefile{nav}{\headcommand {\slideentry {9}{0}{18}{18/18}{}{0}}}
\@writefile{nav}{\headcommand {\beamer@framepages {18}{18}}}
\@writefile{nav}{\headcommand {\beamer@partpages {1}{18}}}
\@writefile{nav}{\headcommand {\beamer@subsectionpages {17}{18}}}
\@writefile{nav}{\headcommand {\beamer@sectionpages {17}{18}}}
\@writefile{nav}{\headcommand {\beamer@documentpages {18}}}
\@writefile{nav}{\headcommand {\def \inserttotalframenumber {18}}}
